…
# How many publications per year?

## Table
joined_df %>% count(year, sort=TRUE)
```

```
## # A tibble: 49 x 2
##     year     n
##    <int> <int>
##  1  2020 13217
##  2  2019  8064
##  3  2018  7820
##  4  2017  7469
##  5  2016  6874
##  6  2015  6108
##  7  2013  5960
##  8  2014  5754
##  9  2011  5108
## 10  2021  4917
## # … with 39 more rows
```
…
```r
ggsave("publication_per_year.png",height=10,width=20, unit="in")

# How many publications per year by catalogue group

## Table
joined_df %>% count(year,catalogue_group, sort=TRUE) 
```

```
## # A tibble: 91 x 3
##     year catalogue_group     n
##    <int> <chr>           <int>
##  1  2020 General         13217
##  2  2019 General          8064
##  3  2018 General          7820
##  4  2017 General          7469
##  5  2016 General          6874
##  6  2015 General          6108
##  7  2013 General          5960
##  8  2014 General          5754
##  9  2011 General          5108
## 10  2021 General          4917
## # … with 81 more rows
```
…
```r
ggsave("publication_per_year_by_catalogue_group.png",height=10,width=20, unit="in")

# How many publications per year by program

## Table
joined_df %>% count(year,program, sort=TRUE) 
```

```
## # A tibble: 778 x 3
##     year program     n
##    <int> <chr>   <int>
##  1  2020 PE       1437
##  2  2020 LS       1322
##  3  2020 EFG      1286
##  4  2020 HE       1022
##  5  2019 LS        866
##  6  2018 LS        852
##  7  2019 PE        849
##  8  2016 LS        796
##  9  2018 PE        790
## 10  2020 CF        768
## # … with 768 more rows
```
…
```r
ggsave("publication_per_year_by_program_facet.png",height=10,width=18, unit="in")

# How many authors have X number of publications?

## Table
joined_df %>% count(user_nber, sort=TRUE) %>% group_by(n) %>% summarise(author_count = n())
```

```
## # A tibble: 180 x 2
##        n author_count
##    <int>        <int>
##  1     1         3039
##  2     2         2897
##  3     3         1925
##  4     4         1244
##  5     5          829
##  6     6          561
##  7     7          428
##  8     8          335
##  9     9          267
## 10    10          237
## # … with 170 more rows
```
…
```r
ggsave("author_with_mostpubs.png",height=10,width=9, unit="in")


# Which months had more number of publications per year

## Table
joined_df %>% count(year,month, sort=TRUE) 
```

```
## # A tibble: 576 x 3
##     year month     n
##    <int> <int> <int>
##  1  2020     5  1772
##  2  2020     7  1426
##  3  2020    12  1424
##  4  2020     4  1358
##  5  2020     6  1334
##  6  2020    10  1123
##  7  2021     4  1010
##  8  2020     9   962
##  9  2016    12   923
## 10  2020     8   905
## # … with 566 more rows
```
…
